<svg width="22" height="11" viewBox="0 0 22 11" fill="none" xmlns="http://www.w3.org/2000/svg">
<mask id="path-1-inside-1" fill="white">
<path d="M0 0L10.79 10.79L21.58 0"/>
</mask>
<path d="M10.79 10.79L10.0829 11.4971L10.79 12.2042L11.4971 11.4971L10.79 10.79ZM-0.707107 0.707107L10.0829 11.4971L11.4971 10.0829L0.707107 -0.707107L-0.707107 0.707107ZM11.4971 11.4971L22.2871 0.707107L20.8729 -0.707107L10.0829 10.0829L11.4971 11.4971Z" fill="white" mask="url(#path-1-inside-1)"/>
</svg>
